{
	"info": {
		"_postman_id": "e5619518-ee4f-4df8-979f-bf3137a8b2f7",
		"name": "kavarna_MainJobPosting",
		"schema": "https://schema.getpostman.com/json/collection/v2.1.0/collection.json"
	},
	"item": [
		{
			"name": "ดูรายละเอียดการเปิดรับสมัครงานทั้งหมด",
			"request": {
				"method": "GET",
				"header": [],
				"url": {
					"raw": "localhost:3000/mainjobposting/",
					"host": [
						"localhost"
					],
					"port": "3000",
					"path": [
						"mainjobposting",
						""
					]
				}
			},
			"response": []
		},
		{
			"name": "ดูรายละเอียดการเปิดรับสมัครงานด้วยID",
			"request": {
				"method": "GET",
				"header": [],
				"url": {
					"raw": "localhost:3000/mainjobposting/604586bc2ba1695ae0dc04e0",
					"host": [
						"localhost"
					],
					"port": "3000",
					"path": [
						"mainjobposting",
						"604586bc2ba1695ae0dc04e0"
					]
				}
			},
			"response": []
		},
		{
			"name": "เพิ่มข้อมูลการเปิดรับสมัครงาน",
			"request": {
				"method": "POST",
				"header": [],
				"body": {
					"mode": "raw",
					"raw": "{\r\n      \"job_position\": \"ไอที\",\r\n      \"job_type\": \"งานประจำ\",\r\n      \"number_recept\": \"3\",\r\n      \"date_start\":\"2021,2,30\",\r\n      \"date_end\":\"2021,8,31\"\r\n}",
					"options": {
						"raw": {
							"language": "json"
						}
					}
				},
				"url": {
					"raw": "localhost:3000/mainjobposting/",
					"host": [
						"localhost"
					],
					"port": "3000",
					"path": [
						"mainjobposting",
						""
					]
				}
			},
			"response": []
		},
		{
			"name": "แก้ไขข้อมูลการเปิดรับสมัครงาน",
			"request": {
				"method": "PUT",
				"header": [],
				"body": {
					"mode": "raw",
					"raw": "{\r\n        \"_id\": \"604586bc2ba1695ae0dc04e0\",\r\n        \"job_position\": \"ไอที\",\r\n        \"job_type\": \"งานประจำ\",\r\n        \"number_recept\": \"2\",\r\n        \"date_start\": \"2021-03-01T17:00:00.000Z\",\r\n        \"date_end\": \"2021-08-30T17:00:00.000Z\",\r\n        \"__v\": 0\r\n    }",
					"options": {
						"raw": {
							"language": "json"
						}
					}
				},
				"url": {
					"raw": "localhost:3000/mainjobposting/",
					"host": [
						"localhost"
					],
					"port": "3000",
					"path": [
						"mainjobposting",
						""
					]
				}
			},
			"response": []
		},
		{
			"name": "ลบข้อมูลการเปิดรับสมัครงาน",
			"request": {
				"method": "DELETE",
				"header": [],
				"url": {
					"raw": "localhost:3000/mainjobposting/604586bc2ba1695ae0dc04e0",
					"host": [
						"localhost"
					],
					"port": "3000",
					"path": [
						"mainjobposting",
						"604586bc2ba1695ae0dc04e0"
					]
				}
			},
			"response": []
		}
	]
}